^X:\DEV\CS421SCANNER\PARSERPROJECT\PARSERPROJECT\PARSER.CPP
X:\DEV\CS421SCANNER\PARSERPROJECT\PARSERPROJECT\X64\DEBUG\VC141.PDB
X:\DEV\CS421SCANNER\PARSERPROJECT\PARSERPROJECT\X64\DEBUG\VC141.IDB
X:\DEV\CS421SCANNER\PARSERPROJECT\PARSERPROJECT\X64\DEBUG\PARSER.OBJ
