^X:\DEV\CS421SCANNER\SCANNER\SCANNER\SCANNER.CPP
X:\DEV\CS421SCANNER\SCANNER\SCANNER\DEBUG\VC141.PDB
X:\DEV\CS421SCANNER\SCANNER\SCANNER\DEBUG\VC141.IDB
X:\DEV\CS421SCANNER\SCANNER\SCANNER\DEBUG\SCANNER.OBJ
